4 7
1.00 0.71 0.0 0.0 0.270 0.01 0.0099942 0.0000058
0.80 0.71 0.0 0.0 0.270 0.01 0.0099942 0.0000058
0.60 0.71 0.0 0.0 0.270 0.01 0.0099942 0.0000058
0.00 0.71 0.0 0.0 0.270 0.01 0.0099942 0.0000058
