GFORTRAN module version '9' created from /Users/neil/research/mesa/star/job/run_star.f
MD5:1673b6e2bed7253f74f2cd28d4650eda -- If you edit this, you'll get what you deserve.

(() () () () () () () () () () () () () () () () () () () () () () ()
() () () ())

()

()

()

()

()

(2 'do_run_star' 'run_star' '' 1 ((PROCEDURE UNKNOWN-INTENT MODULE-PROC
DECL UNKNOWN 0 0 SUBROUTINE ALWAYS_EXPLICIT) (UNKNOWN 0 0 0 0 UNKNOWN ())
3 0 (4) () 0 () () () 0 0)
5 'run_star' 'run_star' '' 1 ((MODULE UNKNOWN-INTENT UNKNOWN-PROC
UNKNOWN UNKNOWN 0 0) (UNKNOWN 0 0 0 0 UNKNOWN ()) 0 0 () () 0 () () () 0
0)
4 'inlist_fname_arg' '' '' 3 ((VARIABLE UNKNOWN-INTENT UNKNOWN-PROC
UNKNOWN UNKNOWN 0 0 OPTIONAL DUMMY) (CHARACTER 1 0 0 0 CHARACTER (())) 0
0 () () 0 () () () 0 0)
)

('do_run_star' 0 2 'run_star' 0 5)
